lab3_board2/simulation/qsim/statemachine.msim.vcd
$comment
	File created using the following command:
		vcd file statemachine.msim.vcd -direction
$end
$date
	Thu Sep 21 20:49:04 2023
$end
$version
	ModelSim Version 2020.1
$end
$timescale
	1ps
$end

$scope module statemachine_vlg_vec_tst $end
$var reg 1 ! clk $end
$var reg 8 " in [7:0] $end
$var reg 1 # reset $end
$var wire 1 $ sel $end
$var wire 1 % wen $end
$var wire 1 & x [7] $end
$var wire 1 ' x [6] $end
$var wire 1 ( x [5] $end
$var wire 1 ) x [4] $end
$var wire 1 * x [3] $end
$var wire 1 + x [2] $end
$var wire 1 , x [1] $end
$var wire 1 - x [0] $end
$var wire 1 . y [7] $end
$var wire 1 / y [6] $end
$var wire 1 0 y [5] $end
$var wire 1 1 y [4] $end
$var wire 1 2 y [3] $end
$var wire 1 3 y [2] $end
$var wire 1 4 y [1] $end
$var wire 1 5 y [0] $end
$var wire 1 6 z [7] $end
$var wire 1 7 z [6] $end
$var wire 1 8 z [5] $end
$var wire 1 9 z [4] $end
$var wire 1 : z [3] $end
$var wire 1 ; z [2] $end
$var wire 1 < z [1] $end
$var wire 1 = z [0] $end

$scope module i1 $end
$var wire 1 > gnd $end
$var wire 1 ? vcc $end
$var wire 1 @ unknown $end
$var tri1 1 A devclrn $end
$var tri1 1 B devpor $end
$var tri1 1 C devoe $end
$var wire 1 D ~QUARTUS_CREATED_GND~I_combout $end
$var wire 1 E reset~input_o $end
$var wire 1 F clk~input_o $end
$var wire 1 G clk~inputCLKENA0_outclk $end
$var wire 1 H in[6]~input_o $end
$var wire 1 I inst8|comb~0_combout $end
$var wire 1 J inst8|sel~combout $end
$var wire 1 K in[0]~input_o $end
$var wire 1 L inst4|2|3~q $end
$var wire 1 M in[1]~input_o $end
$var wire 1 N inst4|3|3~q $end
$var wire 1 O in[4]~input_o $end
$var wire 1 P in[5]~input_o $end
$var wire 1 Q inst4|19|3~q $end
$var wire 1 R in[3]~input_o $end
$var wire 1 S inst7|15|3~q $end
$var wire 1 T in[2]~input_o $end
$var wire 1 U inst4|10|3~q $end
$var wire 1 V inst|2|sub|202~combout $end
$var wire 1 W inst|5|21|11~0_combout $end
$var wire 1 X inst5|11~0_combout $end
$var wire 1 Y inst7|10|3~q $end
$var wire 1 Z inst|2|sub|209~0_combout $end
$var wire 1 [ inst|5|21|12~0_combout $end
$var wire 1 \ inst5|12~0_combout $end
$var wire 1 ] inst4|15|3~q $end
$var wire 1 ^ inst4|18|3~q $end
$var wire 1 _ inst|5|21|18~1_combout $end
$var wire 1 ` inst|5|21|18~0_combout $end
$var wire 1 a inst5|18~0_combout $end
$var wire 1 b inst7|19|3~q $end
$var wire 1 c inst|2|sub|218~combout $end
$var wire 1 d inst|5|21|17~0_combout $end
$var wire 1 e inst5|17~0_combout $end
$var wire 1 f inst7|18|3~q $end
$var wire 1 g inst2|inst~0_combout $end
$var wire 1 h inst8|current.s2~q $end
$var wire 1 i inst8|next.s3_124~combout $end
$var wire 1 j inst8|current.s3~q $end
$var wire 1 k inst8|Selector12~0_combout $end
$var wire 1 l inst8|fs1~combout $end
$var wire 1 m inst|5|21|6~0_combout $end
$var wire 1 n inst5|6~0_combout $end
$var wire 1 o inst7|3|3~q $end
$var wire 1 p inst|5|21|5~0_combout $end
$var wire 1 q inst5|5~0_combout $end
$var wire 1 r inst7|2|3~q $end
$var wire 1 s inst8|Selector0~0_combout $end
$var wire 1 t inst8|next.s4_115~combout $end
$var wire 1 u inst8|current.s4~q $end
$var wire 1 v inst8|Selector8~0_combout $end
$var wire 1 w inst8|Selector10~0_combout $end
$var wire 1 x inst8|fs0~combout $end
$var wire 1 y in[7]~input_o $end
$var wire 1 z inst4|25|3~q $end
$var wire 1 { inst|2|sub|242~0_combout $end
$var wire 1 | inst4|24|3~q $end
$var wire 1 } inst|2|sub|225~0_combout $end
$var wire 1 ~ inst|2|sub|242~combout $end
$var wire 1 !! inst5|24~0_combout $end
$var wire 1 "! inst7|25|3~q $end
$var wire 1 #! inst|2|sub|234~combout $end
$var wire 1 $! inst|5|21|23~0_combout $end
$var wire 1 %! inst5|23~0_combout $end
$var wire 1 &! inst7|24|3~q $end
$var wire 1 '! inst8|Selector4~0_combout $end
$var wire 1 (! inst8|next.s1_142~combout $end
$var wire 1 )! inst8|current.s1~q $end
$var wire 1 *! inst8|Selector6~0_combout $end
$var wire 1 +! inst8|next.s0_151~combout $end
$var wire 1 ,! inst8|current.s0~0_combout $end
$var wire 1 -! inst8|current.s0~q $end
$var wire 1 .! inst8|Selector2~0_combout $end
$var wire 1 /! inst8|Selector8~1_combout $end
$var wire 1 0! inst8|wen~combout $end
$var wire 1 1! inst|5|21|24~0_combout $end
$upscope $end
$upscope $end
$enddefinitions $end
#0
$dumpvars
0!
b1110 "
1#
0$
0%
0-
0,
0+
0*
0)
0(
0'
0&
05
04
03
02
01
00
0/
0.
0=
0<
0;
0:
09
08
07
06
0>
1?
x@
1A
1B
1C
0D
1E
0F
0G
0H
1I
0J
0K
0L
1M
0N
0O
0P
0Q
1R
0S
1T
0U
0V
0W
1X
0Y
0Z
0[
1\
0]
0^
1_
0`
0a
0b
0c
0d
0e
0f
0g
0h
0i
0j
1k
1l
0m
1n
0o
0p
0q
0r
1s
1t
0u
0v
0w
0x
0y
0z
0{
0|
0}
0~
0!!
0"!
0#!
0$!
0%!
0&!
0'!
0(!
0)!
0*!
0+!
1,!
0-!
1.!
0/!
00!
01!
$end
#20000
1!
1F
1G
1-!
1u
1o
1]
1Y
1U
1S
1N
14
1*
13
1+
12
1,
0I
1Z
1V
1c
1m
1W
1p
1=
1;
1<
1J
1$
1q
0\
#40000
0!
0F
0G
#60000
0#
1!
0E
1F
1G
1r
0]
0S
1L
15
0*
02
1-
0c
1/!
1w
0s
0W
0;
1x
0X
0t
10!
1%
0p
1[
1W
1;
1:
0=
1X
1\
0q
#80000
0!
0F
0G
#100000
1!
1F
1G
0u
1h
1]
0L
05
12
1v
1c
1i
0/!
0k
0l
00!
0%
1d
0[
0:
19
0\
1e
#120000
0!
0F
0G
#140000
1!
1F
1G
1j
0h
0r
1f
1^
0]
02
11
1)
0-
0w
1s
1k
1}
0c
0_
0i
1[
1p
0m
0<
1=
1:
1l
0x
0n
1q
1\
1`
0d
1t
09
18
0e
1a
1m
0`
0W
0;
08
1<
0X
0a
1n
#160000
0!
0F
0G
#180000
1!
1F
1G
1u
0j
1r
0f
0^
1]
0Y
0U
1S
1L
15
1*
03
0+
12
01
0)
1-
0s
0k
0v
0Z
0}
1c
1_
0m
0[
1W
1;
0:
0<
1/!
1w
1k
0l
1X
0\
0n
0t
1l
1x
1m
1[
0W
10!
1%
0;
1:
1<
0X
1\
1n
0p
1d
0[
1W
1;
0:
19
0=
1X
0\
1e
0q
#200000
0!
0F
0G
#220000
1!
1F
1G
0u
1h
1^
0]
1U
0L
05
13
02
11
1v
1Z
0V
1i
1}
0c
0_
0/!
0k
0l
00!
0%
0d
1`
0W
0;
18
09
0X
1a
0e
#240000
0!
0F
0G
#260000
1!
1F
1G
1j
0h
0r
1b
0^
0U
0S
1Q
10
0*
03
01
1(
0-
0w
1s
1k
1#!
0}
0Z
1V
0i
1[
0`
1p
0m
0<
1=
08
1:
1l
0x
0n
1q
0a
1\
1W
0[
1$!
1t
17
0:
1;
1%!
0\
1X
0$!
1d
0W
0;
19
07
0X
1e
0%!
#280000
0!
0F
0G
#300000
1!
1F
1G
1u
0j
1r
0o
1f
0b
1^
0Q
0N
1L
15
04
00
11
0(
1)
0,
1-
0s
0k
0v
0V
0#!
1}
0p
0d
1[
1:
09
0=
1/!
1w
1k
0l
1\
0e
0q
0t
1l
1x
1p
1d
0[
10!
1%
0:
19
1=
0\
1e
1q
0p
1m
0d
1`
18
09
1<
0=
1a
0e
1n
0q
#320000
0!
0F
0G
#340000
1!
1F
1G
0u
1h
0^
1Q
1N
0L
05
14
10
01
1v
1V
1#!
0}
1c
1i
0#!
0/!
0k
0l
00!
0%
0m
1d
1W
1;
19
0<
1X
1e
0n
#360000
0!
0F
0G
#380000
1!
1F
1G
1j
0h
0r
1b
1^
1Y
1U
0N
04
13
1+
11
1(
0-
0w
1s
1k
1Z
0V
1}
0c
1_
1#!
0i
0`
1p
1=
08
1l
0x
1q
0a
1$!
1`
0d
0W
1[
1t
1:
0;
09
18
17
1\
0X
0e
1a
1%!
0$!
0p
1m
1d
0`
08
19
1<
0=
07
0a
1e
1n
0q
0%!
#400000
0!
0F
0G
#420000
1!
1F
1G
1u
0j
1o
0b
1]
0Y
0U
1S
0Q
1N
14
00
1*
03
0+
12
0(
1,
0k
0v
0Z
1V
0#!
0_
1c
0m
0d
1W
1p
1=
1;
09
0<
1k
0l
1q
1X
0e
0n
1l
0p
1m
1d
0W
0;
19
1<
0=
0X
1e
1n
0q
1p
0m
0d
1W
1;
09
0<
1=
1X
0e
0n
1q
#440000
0!
0F
0G
#460000
1!
1F
1G
1r
0o
0f
0^
1Y
1U
0N
1L
15
04
13
1+
01
0)
0,
1-
1Z
0V
0}
1_
1/!
1w
0s
0p
1m
0[
0:
1<
0=
1x
0\
1n
0q
0t
10!
1%
1d
1[
0W
0;
1:
19
0X
1\
1e
#480000
0!
0F
0G
#500000
1!
1F
1G
0u
1h
1^
0U
1N
0L
05
14
03
11
1v
1}
0c
0_
1i
0/!
0k
0l
00!
0%
0m
0d
1`
18
09
0<
1a
0e
0n
#520000
0!
0F
0G
#540000
1!
1F
1G
1j
0h
0r
1b
0^
0Y
1Q
0N
04
10
0+
01
1(
0-
0w
1s
1k
0Z
1#!
0}
1c
0i
0`
1p
1=
08
1l
0x
1q
0a
1d
1$!
0[
1t
0:
17
19
0\
1%!
1e
0$!
0p
1W
1;
0=
07
1X
0q
0%!
#560000
0!
0F
0G
#580000
1!
1F
1G
1u
0j
1f
0b
1^
0]
1Y
1U
0S
0Q
00
0*
13
1+
02
11
0(
1)
0k
0v
0#!
1}
0c
1Z
0d
1[
0W
1m
1<
0;
1:
09
1k
0l
1n
0X
1\
0e
1l
0m
1d
0[
1W
1;
0:
19
0<
1X
0\
1e
0n
1m
0d
1[
0W
0;
1:
09
1<
0X
1\
0e
1n
#600000
0!
0F
0G
#620000
1!
1F
1G
1o
0f
0^
1]
0Y
0U
1S
1N
14
1*
03
0+
12
01
0)
1,
0Z
1V
0}
1c
1_
0m
0[
1W
1p
1=
1;
0:
0<
1q
1X
0\
0n
#640000
0!
0F
0G
#660000
1!
1F
1G
1r
0o
0]
1Y
1U
0S
0N
1L
15
04
0*
13
1+
02
0,
1-
1Z
0V
0c
1/!
1w
0s
0p
1m
0W
0;
1<
0=
1x
0X
1n
0q
0t
10!
1%
1[
1:
1\
#680000
0!
0F
0G
#700000
1!
1F
1G
0u
1h
1]
0U
1N
0L
05
14
03
12
1v
1c
1i
0/!
0k
0l
00!
0%
0m
1d
0[
0:
19
0<
0\
1e
0n
#720000
0!
0F
0G
#740000
1!
1F
1G
1j
0h
0r
1f
1^
0]
0Y
0N
04
0+
02
11
1)
0-
0w
1s
1k
0Z
1}
0c
0_
0i
1[
1p
1=
1:
1l
0x
1q
1\
1`
0d
0[
1t
0:
09
18
0\
0e
1a
0p
0`
1[
1:
08
0=
1\
0a
0q
#760000
0!
0F
0G
#780000
1!
1F
1G
1u
0j
0f
0^
1]
1S
1*
12
01
0)
0k
0v
0}
1c
1_
0[
1W
1;
0:
1k
0l
1X
0\
1l
1[
0W
0;
1:
0X
1\
0[
1W
1;
0:
1X
0\
#800000
0!
0F
0G
#820000
1!
1F
1G
0]
1Y
1U
0S
0*
13
1+
02
0c
1Z
0W
1m
1<
0;
1n
0X
#840000
0!
0F
0G
#860000
1!
1F
1G
1o
0Y
0U
1N
14
03
0+
1,
0Z
1V
0m
1p
1=
0<
1q
0n
#880000
0!
0F
0G
#900000
1!
1F
1G
1r
0o
0N
1L
15
04
0,
1-
0V
1g
1/!
1w
0s
0p
0=
1x
0/!
1'!
0w
0k
0q
0t
10!
1%
0l
0x
1(!
00!
1m
1<
0%
1n
1p
0m
0<
1=
0n
1q
#920000
0!
0F
0G
#940000
1!
1F
1G
1)!
0u
1v
#960000
0!
0F
0G
#980000
1!
1F
1G
